,Kotlin 1.2,Objective-C 2.0,Swift 4
Inheritance,"Simple, with interfaces and extensions","Simple, with protocols","Simple, with protocols and protocol extensions"
Semicolons,Optional,Mandatory,Optional
Class definition,"`class`","`@interface & @implementation`","`class`"
Interfaces,"implements `interface`","conforms to `@protocol`","conforms to `protocol`"
Including code,`import` (symbols),`#import` (files),`import` (symbols)
Class extensions,Extensions,Categories,Extensions
Dynamic typing,`Any`,`id`,`Any`
Private field suffix,"Not used",`_` (underscore),`_` (underscore)
Memory management,Garbage collection,Manual or Automatic Reference Counting,Automatic Reference Counting
Generics,yes (type erasure),yes (type erasure),yes
Method pointers,no,`@selector`,`#selector`
Callbacks,Lambdas,Delegate objects and blocks,blocks
Pointers,no,yes,Via library classes
Root class,`Object`,`NSObject` / `NSProxy` / …,`NSObject` / `NSProxy` / …
Visibility, `public` / `internal` / `protected` / `private`,`@public` / `@protected` / `@private` (only fields),`open` / `public` / `internal` / `fileprivate` / `private`
Exception handling,`try` / `catch` / `finally` + `Exception`,`@try` / `@catch` / `@finally` + `NSException`,`do` / `try` / `catch` + `Error`
Namespaces,Packages,Through class prefixes,"Implicit, via modules"
Formal grammar,https://kotlinlang.org/docs/reference/grammar.html[kotlinlang.org],,https://developer.apple.com/library/content/documentation/Swift/Conceptual/Swift_Programming_Language/zzSummaryOfTheGrammar.html#//apple_ref/doc/uid/TP40014097-CH38-ID458[developer.apple.com]
