<svg xmlns="http://www.w3.org/2000/svg" xmlns:xlink="http://www.w3.org/1999/xlink" width="70.833388pt" height="11.599609pt" viewBox="0 0 70.833388 11.599609" version="1.1">
<defs>
<g>
<symbol overflow="visible" id="glyph0-0">
<path style="stroke:none;" d=""/>
</symbol>
<symbol overflow="visible" id="glyph0-1">
<path style="stroke:none;" d="M 4.464844 -5.304688 C 4.621094 -5.304688 4.757812 -5.257812 4.882812 -5.171875 C 5.070312 -5.042969 5.164062 -4.832031 5.164062 -4.535156 C 5.164062 -4.402344 5.128906 -4.21875 5.066406 -3.980469 C 5 -3.746094 4.882812 -3.367188 4.71875 -2.84375 C 5.152344 -3.507812 5.523438 -4.011719 5.835938 -4.359375 C 6.402344 -4.988281 6.902344 -5.304688 7.335938 -5.304688 C 7.519531 -5.304688 7.6875 -5.242188 7.839844 -5.117188 C 7.992188 -4.992188 8.070312 -4.789062 8.070312 -4.511719 C 8.070312 -4.425781 8.03125 -4.21875 7.957031 -3.882812 L 7.09375 -0.691406 C 7.078125 -0.640625 7.085938 -0.589844 7.113281 -0.535156 C 7.140625 -0.484375 7.191406 -0.457031 7.265625 -0.457031 C 7.335938 -0.457031 7.398438 -0.476562 7.449219 -0.507812 C 7.503906 -0.542969 7.570312 -0.601562 7.652344 -0.6875 C 7.730469 -0.765625 7.792969 -0.832031 7.84375 -0.890625 C 7.890625 -0.949219 8.03125 -1.117188 8.261719 -1.398438 L 8.445312 -1.257812 L 8.382812 -1.179688 C 8.101562 -0.78125 7.820312 -0.460938 7.535156 -0.226562 C 7.25 0.0117188 6.96875 0.128906 6.691406 0.128906 C 6.566406 0.128906 6.460938 0.0976562 6.375 0.0351562 C 6.242188 -0.0664062 6.175781 -0.234375 6.175781 -0.476562 C 6.175781 -0.535156 6.179688 -0.59375 6.191406 -0.664062 C 6.199219 -0.730469 6.214844 -0.804688 6.234375 -0.882812 L 7.078125 -4.164062 C 7.089844 -4.210938 7.097656 -4.25 7.105469 -4.28125 C 7.109375 -4.3125 7.113281 -4.34375 7.113281 -4.375 C 7.113281 -4.46875 7.089844 -4.542969 7.039062 -4.59375 C 6.992188 -4.644531 6.929688 -4.671875 6.855469 -4.671875 C 6.59375 -4.671875 6.289062 -4.472656 5.941406 -4.078125 C 5.59375 -3.683594 5.289062 -3.28125 5.03125 -2.875 C 4.796875 -2.460938 4.632812 -2.117188 4.539062 -1.835938 C 4.441406 -1.558594 4.265625 -0.945312 4.015625 0 L 3.105469 0 L 4.21875 -4.164062 C 4.226562 -4.199219 4.234375 -4.234375 4.238281 -4.269531 C 4.246094 -4.300781 4.25 -4.335938 4.25 -4.371094 C 4.25 -4.464844 4.226562 -4.539062 4.1875 -4.589844 C 4.144531 -4.644531 4.078125 -4.671875 3.984375 -4.671875 C 3.738281 -4.671875 3.433594 -4.464844 3.074219 -4.054688 C 2.710938 -3.644531 2.414062 -3.261719 2.1875 -2.90625 C 1.960938 -2.558594 1.742188 -2.09375 1.535156 -1.515625 C 1.410156 -1.164062 1.242188 -0.660156 1.039062 0 L 0.132812 0 L 1.277344 -4.164062 C 1.289062 -4.207031 1.296875 -4.25 1.304688 -4.289062 C 1.3125 -4.328125 1.320312 -4.367188 1.320312 -4.414062 C 1.320312 -4.566406 1.265625 -4.65625 1.160156 -4.6875 C 1.054688 -4.71875 0.851562 -4.726562 0.550781 -4.71875 L 0.550781 -4.914062 C 0.945312 -4.976562 1.585938 -5.109375 2.46875 -5.304688 L 2.515625 -5.261719 L 1.828125 -2.84375 C 2.261719 -3.484375 2.671875 -4.015625 3.058594 -4.445312 C 3.589844 -5.015625 4.058594 -5.304688 4.464844 -5.304688 Z M 4.464844 -5.304688 "/>
</symbol>
<symbol overflow="visible" id="glyph0-2">
<path style="stroke:none;" d="M 4.554688 -5 L 1.078125 -0.875 C 1.328125 -0.824219 1.523438 -0.761719 1.671875 -0.691406 C 1.921875 -0.570312 2.140625 -0.382812 2.332031 -0.132812 L 2.6875 0.335938 C 2.773438 0.449219 2.875 0.542969 2.988281 0.621094 C 3.101562 0.699219 3.226562 0.738281 3.359375 0.738281 C 3.457031 0.738281 3.535156 0.71875 3.597656 0.679688 C 3.660156 0.640625 3.691406 0.59375 3.691406 0.539062 C 3.691406 0.511719 3.664062 0.441406 3.609375 0.324219 C 3.554688 0.210938 3.527344 0.101562 3.527344 0 C 3.527344 -0.121094 3.570312 -0.214844 3.652344 -0.277344 C 3.738281 -0.34375 3.828125 -0.375 3.929688 -0.375 C 4.074219 -0.375 4.183594 -0.328125 4.253906 -0.242188 C 4.324219 -0.152344 4.359375 -0.0390625 4.359375 0.101562 C 4.359375 0.3125 4.25 0.507812 4.027344 0.695312 C 3.808594 0.882812 3.539062 0.976562 3.222656 0.976562 C 3.042969 0.976562 2.867188 0.945312 2.695312 0.882812 C 2.59375 0.84375 2.472656 0.789062 2.332031 0.710938 L 1.625 0.3125 C 1.394531 0.183594 1.203125 0.0898438 1.058594 0.03125 C 0.910156 -0.0234375 0.761719 -0.0546875 0.609375 -0.0546875 C 0.503906 -0.0546875 0.417969 -0.0390625 0.351562 -0.0078125 C 0.285156 0.0234375 0.195312 0.0859375 0.0820312 0.171875 L -0.046875 0.0585938 L 3.691406 -4.414062 L 1.9375 -4.414062 C 1.671875 -4.414062 1.472656 -4.367188 1.339844 -4.273438 C 1.203125 -4.179688 1.078125 -3.988281 0.96875 -3.703125 L 0.773438 -3.75 L 1.148438 -5.140625 L 4.554688 -5.140625 Z M 4.554688 -5 "/>
</symbol>
<symbol overflow="visible" id="glyph0-3">
<path style="stroke:none;" d="M 0.21875 0 L 1.230469 -3.621094 C 1.316406 -3.925781 1.367188 -4.109375 1.378906 -4.175781 C 1.394531 -4.238281 1.398438 -4.308594 1.398438 -4.382812 C 1.398438 -4.496094 1.367188 -4.585938 1.304688 -4.648438 C 1.238281 -4.714844 1.113281 -4.746094 0.925781 -4.746094 C 0.878906 -4.746094 0.832031 -4.742188 0.789062 -4.738281 C 0.742188 -4.730469 0.695312 -4.726562 0.640625 -4.71875 L 0.640625 -4.914062 C 0.894531 -4.953125 1.074219 -4.984375 1.179688 -5.003906 C 1.289062 -5.023438 1.40625 -5.046875 1.53125 -5.074219 L 2.578125 -5.304688 C 2.601562 -5.289062 2.617188 -5.269531 2.625 -5.25 L 1.84375 -2.730469 C 2.320312 -3.460938 2.71875 -4.003906 3.039062 -4.359375 C 3.601562 -4.988281 4.109375 -5.304688 4.554688 -5.304688 C 4.726562 -5.304688 4.875 -5.269531 5 -5.203125 C 5.238281 -5.074219 5.355469 -4.84375 5.355469 -4.507812 C 5.355469 -4.414062 5.34375 -4.3125 5.328125 -4.210938 C 5.308594 -4.109375 5.28125 -4 5.25 -3.882812 L 4.484375 -1.078125 C 4.46875 -1.019531 4.449219 -0.949219 4.429688 -0.863281 C 4.410156 -0.78125 4.398438 -0.71875 4.398438 -0.6875 C 4.398438 -0.628906 4.414062 -0.574219 4.441406 -0.527344 C 4.46875 -0.480469 4.515625 -0.457031 4.578125 -0.457031 C 4.679688 -0.457031 4.796875 -0.515625 4.929688 -0.636719 C 5.0625 -0.753906 5.277344 -1.007812 5.578125 -1.398438 L 5.75 -1.25 C 5.429688 -0.816406 5.171875 -0.507812 4.984375 -0.335938 C 4.664062 -0.0273438 4.359375 0.128906 4.066406 0.128906 C 3.933594 0.128906 3.804688 0.0859375 3.683594 -0.00390625 C 3.558594 -0.0898438 3.5 -0.25 3.5 -0.480469 C 3.5 -0.546875 3.503906 -0.617188 3.511719 -0.691406 C 3.523438 -0.765625 3.535156 -0.828125 3.550781 -0.882812 L 4.289062 -3.734375 C 4.328125 -3.890625 4.355469 -4.015625 4.367188 -4.117188 C 4.382812 -4.214844 4.390625 -4.289062 4.390625 -4.328125 C 4.390625 -4.421875 4.367188 -4.503906 4.320312 -4.574219 C 4.277344 -4.640625 4.195312 -4.675781 4.085938 -4.675781 C 3.792969 -4.675781 3.421875 -4.410156 2.976562 -3.878906 C 2.714844 -3.5625 2.449219 -3.1875 2.179688 -2.75 C 1.972656 -2.410156 1.808594 -2.078125 1.691406 -1.753906 C 1.570312 -1.433594 1.382812 -0.847656 1.125 0 Z M 0.21875 0 "/>
</symbol>
<symbol overflow="visible" id="glyph1-0">
<path style="stroke:none;" d=""/>
</symbol>
<symbol overflow="visible" id="glyph1-1">
<path style="stroke:none;" d="M 6.414062 -2.234375 L 6.414062 -1.414062 L 0.359375 -1.414062 L 0.359375 -2.234375 Z M 6.414062 -4.652344 L 6.414062 -3.832031 L 0.359375 -3.832031 L 0.359375 -4.652344 Z M 6.414062 -4.652344 "/>
</symbol>
<symbol overflow="visible" id="glyph1-2">
<path style="stroke:none;" d="M 0.195312 -0.152344 C 0.5 -0.179688 0.703125 -0.230469 0.804688 -0.304688 C 0.960938 -0.417969 1.039062 -0.644531 1.039062 -0.984375 L 1.039062 -4.015625 C 1.039062 -4.304688 1 -4.492188 0.921875 -4.582031 C 0.847656 -4.671875 0.71875 -4.71875 0.546875 -4.71875 C 0.464844 -4.71875 0.402344 -4.710938 0.359375 -4.703125 C 0.320312 -4.695312 0.273438 -4.683594 0.21875 -4.664062 L 0.21875 -4.867188 L 0.640625 -5.007812 C 0.792969 -5.058594 1.039062 -5.152344 1.390625 -5.285156 C 1.738281 -5.417969 1.921875 -5.484375 1.9375 -5.484375 C 1.957031 -5.484375 1.96875 -5.476562 1.976562 -5.453125 C 1.980469 -5.433594 1.980469 -5.398438 1.980469 -5.34375 L 1.980469 -4.554688 C 2.367188 -4.90625 2.703125 -5.148438 2.984375 -5.28125 C 3.265625 -5.417969 3.554688 -5.484375 3.851562 -5.484375 C 4.253906 -5.484375 4.570312 -5.347656 4.8125 -5.074219 C 4.9375 -4.925781 5.039062 -4.726562 5.121094 -4.46875 C 5.410156 -4.761719 5.664062 -4.980469 5.875 -5.121094 C 6.246094 -5.363281 6.625 -5.484375 7.015625 -5.484375 C 7.644531 -5.484375 8.0625 -5.226562 8.273438 -4.71875 C 8.394531 -4.429688 8.453125 -3.96875 8.453125 -3.34375 L 8.453125 -0.914062 C 8.453125 -0.636719 8.515625 -0.449219 8.640625 -0.347656 C 8.761719 -0.25 8.984375 -0.183594 9.304688 -0.152344 L 9.304688 0 L 6.664062 0 L 6.664062 -0.164062 C 7.003906 -0.195312 7.226562 -0.265625 7.332031 -0.367188 C 7.441406 -0.472656 7.492188 -0.6875 7.492188 -1.015625 L 7.492188 -3.539062 C 7.492188 -3.917969 7.453125 -4.195312 7.371094 -4.375 C 7.226562 -4.695312 6.945312 -4.859375 6.523438 -4.859375 C 6.269531 -4.859375 6.015625 -4.773438 5.765625 -4.605469 C 5.621094 -4.507812 5.445312 -4.351562 5.234375 -4.136719 L 5.234375 -1.136719 C 5.234375 -0.820312 5.289062 -0.578125 5.398438 -0.414062 C 5.511719 -0.25 5.746094 -0.164062 6.105469 -0.152344 L 6.105469 0 L 3.414062 0 L 3.414062 -0.152344 C 3.785156 -0.199219 4.023438 -0.289062 4.125 -0.421875 C 4.226562 -0.554688 4.277344 -0.882812 4.277344 -1.398438 L 4.277344 -3.039062 C 4.277344 -3.640625 4.238281 -4.054688 4.160156 -4.28125 C 4.03125 -4.664062 3.757812 -4.859375 3.339844 -4.859375 C 3.101562 -4.859375 2.867188 -4.792969 2.636719 -4.660156 C 2.40625 -4.53125 2.203125 -4.359375 2.027344 -4.148438 L 2.027344 -0.945312 C 2.027344 -0.648438 2.078125 -0.441406 2.183594 -0.328125 C 2.285156 -0.214844 2.511719 -0.15625 2.859375 -0.152344 L 2.859375 0 L 0.195312 0 Z M 0.195312 -0.152344 "/>
</symbol>
<symbol overflow="visible" id="glyph1-3">
<path style="stroke:none;" d="M 0.304688 -2.71875 C 0.304688 -3.496094 0.550781 -4.152344 1.046875 -4.691406 C 1.539062 -5.226562 2.175781 -5.496094 2.953125 -5.496094 C 3.726562 -5.496094 4.367188 -5.242188 4.875 -4.734375 C 5.382812 -4.226562 5.636719 -3.550781 5.636719 -2.707031 C 5.636719 -1.929688 5.390625 -1.253906 4.898438 -0.679688 C 4.40625 -0.105469 3.769531 0.179688 2.988281 0.179688 C 2.238281 0.179688 1.601562 -0.09375 1.085938 -0.644531 C 0.566406 -1.195312 0.304688 -1.886719 0.304688 -2.71875 Z M 2.789062 -5.144531 C 2.480469 -5.144531 2.210938 -5.042969 1.984375 -4.839844 C 1.59375 -4.484375 1.398438 -3.871094 1.398438 -3 C 1.398438 -2.304688 1.558594 -1.65625 1.871094 -1.054688 C 2.1875 -0.453125 2.625 -0.152344 3.179688 -0.152344 C 3.617188 -0.152344 3.957031 -0.351562 4.191406 -0.757812 C 4.429688 -1.160156 4.546875 -1.6875 4.546875 -2.335938 C 4.546875 -3.011719 4.398438 -3.648438 4.09375 -4.25 C 3.792969 -4.847656 3.359375 -5.144531 2.789062 -5.144531 Z M 2.789062 -5.144531 "/>
</symbol>
<symbol overflow="visible" id="glyph1-4">
<path style="stroke:none;" d="M 2.84375 -5.539062 C 3.128906 -5.539062 3.390625 -5.476562 3.625 -5.351562 C 3.78125 -5.269531 3.933594 -5.15625 4.078125 -5.007812 L 4.078125 -6.875 C 4.078125 -7.113281 4.050781 -7.273438 4 -7.367188 C 3.945312 -7.457031 3.820312 -7.5 3.621094 -7.5 C 3.574219 -7.5 3.53125 -7.5 3.5 -7.492188 C 3.464844 -7.488281 3.382812 -7.484375 3.265625 -7.46875 L 3.265625 -7.664062 L 3.742188 -7.789062 C 3.917969 -7.835938 4.09375 -7.882812 4.273438 -7.933594 C 4.449219 -7.984375 4.601562 -8.03125 4.734375 -8.078125 C 4.796875 -8.097656 4.898438 -8.136719 5.046875 -8.191406 L 5.078125 -8.179688 L 5.070312 -7.5625 C 5.066406 -7.339844 5.0625 -7.113281 5.054688 -6.875 C 5.050781 -6.640625 5.050781 -6.40625 5.050781 -6.175781 L 5.039062 -1.390625 C 5.039062 -1.136719 5.070312 -0.957031 5.132812 -0.855469 C 5.195312 -0.753906 5.359375 -0.703125 5.632812 -0.703125 C 5.675781 -0.703125 5.71875 -0.703125 5.757812 -0.707031 C 5.800781 -0.707031 5.84375 -0.710938 5.890625 -0.71875 L 5.890625 -0.527344 C 5.867188 -0.519531 5.582031 -0.421875 5.039062 -0.234375 L 4.117188 0.109375 L 4.078125 0.0585938 L 4.078125 -0.664062 C 3.859375 -0.425781 3.671875 -0.253906 3.507812 -0.152344 C 3.222656 0.0234375 2.894531 0.109375 2.519531 0.109375 C 1.855469 0.109375 1.316406 -0.144531 0.90625 -0.660156 C 0.492188 -1.171875 0.289062 -1.765625 0.289062 -2.445312 C 0.289062 -3.292969 0.535156 -4.019531 1.027344 -4.625 C 1.523438 -5.234375 2.125 -5.539062 2.84375 -5.539062 Z M 3.058594 -0.523438 C 3.363281 -0.523438 3.609375 -0.609375 3.796875 -0.789062 C 3.984375 -0.96875 4.078125 -1.140625 4.078125 -1.300781 L 4.078125 -3.8125 C 4.078125 -4.320312 3.941406 -4.679688 3.671875 -4.890625 C 3.398438 -5.097656 3.132812 -5.203125 2.875 -5.203125 C 2.382812 -5.203125 2 -4.984375 1.726562 -4.550781 C 1.453125 -4.113281 1.320312 -3.578125 1.320312 -2.941406 C 1.320312 -2.3125 1.464844 -1.75 1.753906 -1.257812 C 2.046875 -0.765625 2.480469 -0.523438 3.058594 -0.523438 Z M 3.058594 -0.523438 "/>
</symbol>
<symbol overflow="visible" id="glyph2-0">
<path style="stroke:none;" d=""/>
</symbol>
<symbol overflow="visible" id="glyph2-1">
<path style="stroke:none;" d="M 0.867188 -0.964844 C 0.867188 -0.796875 0.902344 -0.648438 0.980469 -0.523438 C 1.058594 -0.394531 1.191406 -0.332031 1.375 -0.332031 C 1.773438 -0.332031 2.15625 -0.652344 2.519531 -1.289062 C 2.863281 -1.886719 3.035156 -2.457031 3.035156 -2.992188 C 3.035156 -3.160156 3.007812 -3.300781 2.953125 -3.410156 C 2.898438 -3.523438 2.785156 -3.578125 2.617188 -3.578125 C 2.195312 -3.578125 1.789062 -3.238281 1.394531 -2.554688 C 1.042969 -1.945312 0.867188 -1.414062 0.867188 -0.964844 Z M 2.570312 -3.773438 C 2.789062 -3.773438 2.945312 -3.71875 3.035156 -3.613281 C 3.089844 -3.554688 3.132812 -3.449219 3.160156 -3.304688 L 3.636719 -5.007812 C 3.648438 -5.054688 3.660156 -5.097656 3.664062 -5.136719 C 3.667969 -5.171875 3.667969 -5.207031 3.667969 -5.234375 C 3.667969 -5.339844 3.648438 -5.410156 3.609375 -5.4375 C 3.570312 -5.464844 3.511719 -5.480469 3.4375 -5.480469 C 3.390625 -5.480469 3.34375 -5.476562 3.304688 -5.472656 C 3.265625 -5.472656 3.210938 -5.46875 3.144531 -5.460938 L 3.144531 -5.597656 C 3.457031 -5.640625 3.890625 -5.714844 4.445312 -5.816406 L 4.484375 -5.773438 L 4.476562 -5.726562 L 3.675781 -2.738281 L 3.132812 -0.757812 C 3.121094 -0.714844 3.113281 -0.671875 3.105469 -0.632812 C 3.097656 -0.597656 3.09375 -0.5625 3.09375 -0.53125 C 3.09375 -0.457031 3.113281 -0.410156 3.152344 -0.386719 C 3.1875 -0.363281 3.222656 -0.355469 3.25 -0.355469 C 3.328125 -0.355469 3.441406 -0.425781 3.589844 -0.566406 C 3.675781 -0.652344 3.792969 -0.785156 3.945312 -0.964844 L 4.039062 -0.875 L 3.980469 -0.785156 C 3.878906 -0.632812 3.746094 -0.476562 3.585938 -0.320312 C 3.300781 -0.0390625 3.042969 0.101562 2.816406 0.101562 C 2.742188 0.101562 2.671875 0.0820312 2.613281 0.0507812 C 2.5 -0.015625 2.441406 -0.136719 2.441406 -0.308594 C 2.441406 -0.367188 2.449219 -0.457031 2.46875 -0.585938 C 2.484375 -0.714844 2.507812 -0.851562 2.542969 -1.003906 C 2.332031 -0.679688 2.101562 -0.417969 1.847656 -0.210938 C 1.597656 -0.0078125 1.324219 0.09375 1.027344 0.09375 C 0.785156 0.09375 0.574219 0.0078125 0.394531 -0.164062 C 0.214844 -0.335938 0.125 -0.597656 0.125 -0.957031 C 0.125 -1.5625 0.402344 -2.183594 0.957031 -2.820312 C 1.507812 -3.457031 2.046875 -3.773438 2.570312 -3.773438 Z M 2.570312 -3.773438 "/>
</symbol>
</g>
</defs>
<g id="surface25">
<g style="fill:rgb(0%,0%,0%);fill-opacity:1;">
  <use xlink:href="#glyph0-1" x="0.53125" y="10.621094"/>
</g>
<g style="fill:rgb(0%,0%,0%);fill-opacity:1;">
  <use xlink:href="#glyph1-1" x="13.28125" y="10.621094"/>
</g>
<g style="fill:rgb(0%,0%,0%);fill-opacity:1;">
  <use xlink:href="#glyph0-2" x="24.414062" y="10.621094"/>
</g>
<g style="fill:rgb(0%,0%,0%);fill-opacity:1;">
  <use xlink:href="#glyph2-1" x="29.980469" y="5.81543"/>
</g>
<g style="fill:rgb(0%,0%,0%);fill-opacity:1;">
  <use xlink:href="#glyph1-2" x="38.746094" y="10.621094"/>
  <use xlink:href="#glyph1-3" x="48.080078" y="10.621094"/>
  <use xlink:href="#glyph1-4" x="54.080078" y="10.621094"/>
</g>
<g style="fill:rgb(0%,0%,0%);fill-opacity:1;">
  <use xlink:href="#glyph0-3" x="64.417969" y="10.621094"/>
</g>
</g>
</svg>
