<svg xmlns="http://www.w3.org/2000/svg" xmlns:xlink="http://www.w3.org/1999/xlink" width="82.073574pt" height="8.988281pt" viewBox="0 0 82.073574 8.988281" version="1.1">
<defs>
<g>
<symbol overflow="visible" id="glyph0-0">
<path style="stroke:none;" d=""/>
</symbol>
<symbol overflow="visible" id="glyph0-1">
<path style="stroke:none;" d="M 1.21875 -1.359375 C 1.21875 -1.121094 1.273438 -0.914062 1.382812 -0.734375 C 1.492188 -0.558594 1.679688 -0.46875 1.9375 -0.46875 C 2.496094 -0.46875 3.035156 -0.917969 3.550781 -1.816406 C 4.035156 -2.660156 4.277344 -3.460938 4.277344 -4.210938 C 4.277344 -4.449219 4.238281 -4.648438 4.160156 -4.804688 C 4.082031 -4.960938 3.921875 -5.039062 3.6875 -5.039062 C 3.09375 -5.039062 2.515625 -4.558594 1.960938 -3.597656 C 1.464844 -2.738281 1.21875 -1.992188 1.21875 -1.359375 Z M 3.621094 -5.3125 C 3.929688 -5.3125 4.148438 -5.242188 4.277344 -5.09375 C 4.351562 -5.007812 4.410156 -4.859375 4.453125 -4.652344 L 5.121094 -7.054688 C 5.140625 -7.121094 5.152344 -7.179688 5.160156 -7.234375 C 5.164062 -7.285156 5.167969 -7.332031 5.167969 -7.371094 C 5.167969 -7.523438 5.140625 -7.617188 5.082031 -7.65625 C 5.027344 -7.695312 4.945312 -7.71875 4.839844 -7.71875 C 4.773438 -7.71875 4.710938 -7.714844 4.65625 -7.710938 C 4.597656 -7.707031 4.523438 -7.703125 4.429688 -7.695312 L 4.429688 -7.886719 C 4.871094 -7.945312 5.484375 -8.046875 6.265625 -8.191406 L 6.316406 -8.132812 L 6.304688 -8.070312 L 5.179688 -3.855469 L 4.414062 -1.066406 C 4.398438 -1.003906 4.382812 -0.945312 4.375 -0.894531 C 4.363281 -0.839844 4.359375 -0.792969 4.359375 -0.75 C 4.359375 -0.644531 4.386719 -0.578125 4.4375 -0.546875 C 4.492188 -0.515625 4.539062 -0.5 4.578125 -0.5 C 4.691406 -0.5 4.851562 -0.597656 5.054688 -0.796875 C 5.175781 -0.917969 5.34375 -1.105469 5.554688 -1.359375 L 5.6875 -1.230469 L 5.609375 -1.109375 C 5.464844 -0.894531 5.277344 -0.671875 5.050781 -0.453125 C 4.648438 -0.0585938 4.289062 0.140625 3.96875 0.140625 C 3.863281 0.140625 3.765625 0.117188 3.679688 0.0703125 C 3.519531 -0.0234375 3.4375 -0.191406 3.4375 -0.433594 C 3.4375 -0.515625 3.453125 -0.648438 3.476562 -0.828125 C 3.5 -1.007812 3.53125 -1.203125 3.578125 -1.414062 C 3.28125 -0.960938 2.957031 -0.585938 2.605469 -0.296875 C 2.25 -0.0078125 1.867188 0.132812 1.445312 0.132812 C 1.105469 0.132812 0.8125 0.015625 0.554688 -0.226562 C 0.300781 -0.46875 0.175781 -0.84375 0.175781 -1.347656 C 0.175781 -2.199219 0.566406 -3.074219 1.347656 -3.972656 C 2.125 -4.867188 2.882812 -5.3125 3.621094 -5.3125 Z M 3.621094 -5.3125 "/>
</symbol>
<symbol overflow="visible" id="glyph0-2">
<path style="stroke:none;" d="M 0.375 -1.554688 C 0.375 -2.421875 0.765625 -3.257812 1.546875 -4.070312 C 2.320312 -4.882812 3.117188 -5.289062 3.945312 -5.289062 C 4.25 -5.289062 4.492188 -5.21875 4.671875 -5.078125 C 4.851562 -4.9375 4.9375 -4.730469 4.9375 -4.453125 C 4.9375 -3.890625 4.609375 -3.410156 3.953125 -3.007812 C 3.292969 -2.609375 2.601562 -2.363281 1.875 -2.273438 L 1.539062 -2.234375 C 1.488281 -2.074219 1.453125 -1.945312 1.4375 -1.847656 C 1.417969 -1.753906 1.40625 -1.632812 1.40625 -1.488281 C 1.40625 -1.144531 1.519531 -0.875 1.742188 -0.6875 C 1.96875 -0.496094 2.234375 -0.398438 2.542969 -0.398438 C 2.835938 -0.398438 3.148438 -0.496094 3.476562 -0.691406 C 3.664062 -0.804688 3.933594 -1.007812 4.289062 -1.300781 L 4.441406 -1.164062 C 4.265625 -0.941406 4.015625 -0.714844 3.6875 -0.480469 C 3.105469 -0.0625 2.519531 0.148438 1.933594 0.148438 C 1.519531 0.148438 1.15625 0 0.84375 -0.292969 C 0.53125 -0.585938 0.375 -1.007812 0.375 -1.554688 Z M 1.625 -2.496094 C 2.371094 -2.605469 2.976562 -2.867188 3.445312 -3.285156 C 3.914062 -3.699219 4.148438 -4.113281 4.148438 -4.523438 C 4.148438 -4.671875 4.113281 -4.789062 4.042969 -4.878906 C 3.972656 -4.964844 3.867188 -5.007812 3.734375 -5.007812 C 3.480469 -5.007812 3.230469 -4.902344 2.984375 -4.683594 C 2.742188 -4.46875 2.523438 -4.222656 2.328125 -3.949219 C 2.121094 -3.628906 1.953125 -3.320312 1.835938 -3.03125 C 1.769531 -2.875 1.695312 -2.695312 1.625 -2.496094 Z M 1.625 -2.496094 "/>
</symbol>
<symbol overflow="visible" id="glyph0-3">
<path style="stroke:none;" d="M 3.585938 -5.828125 L 3.585938 -6.664062 C 3.59375 -7.007812 3.570312 -7.28125 3.515625 -7.488281 C 3.445312 -7.6875 3.253906 -7.789062 2.941406 -7.789062 C 2.714844 -7.78125 2.535156 -7.707031 2.402344 -7.570312 C 2.265625 -7.417969 2.140625 -7.246094 2.027344 -7.054688 L 1.726562 -7.179688 C 1.78125 -7.339844 1.859375 -7.507812 1.957031 -7.695312 C 2.042969 -7.878906 2.140625 -8.054688 2.242188 -8.21875 C 2.363281 -8.394531 2.5 -8.539062 2.65625 -8.65625 C 2.796875 -8.757812 2.960938 -8.804688 3.15625 -8.804688 C 3.347656 -8.804688 3.503906 -8.765625 3.621094 -8.679688 C 3.726562 -8.589844 3.804688 -8.46875 3.859375 -8.3125 C 3.949219 -7.992188 3.992188 -7.648438 3.984375 -7.28125 C 3.9375 -5.585938 3.882812 -3.914062 3.8125 -2.257812 C 3.8125 -1.84375 3.859375 -1.507812 3.949219 -1.25 C 4.035156 -0.976562 4.21875 -0.835938 4.5 -0.835938 C 4.730469 -0.835938 4.910156 -0.914062 5.039062 -1.066406 C 5.152344 -1.210938 5.242188 -1.363281 5.304688 -1.523438 L 5.542969 -1.417969 C 5.511719 -1.273438 5.464844 -1.113281 5.402344 -0.9375 C 5.328125 -0.761719 5.242188 -0.59375 5.148438 -0.433594 C 5.058594 -0.273438 4.945312 -0.144531 4.796875 -0.046875 C 4.652344 0.0625 4.476562 0.117188 4.273438 0.117188 C 4.074219 0.109375 3.914062 0.0390625 3.789062 -0.09375 C 3.667969 -0.230469 3.582031 -0.402344 3.527344 -0.609375 C 3.449219 -1.050781 3.414062 -1.445312 3.421875 -1.796875 C 3.421875 -2.339844 3.441406 -3.085938 3.480469 -4.03125 L 3.457031 -4.054688 L 0.859375 0 L -0.25 0 Z M 3.585938 -5.828125 "/>
</symbol>
<symbol overflow="visible" id="glyph1-0">
<path style="stroke:none;" d=""/>
</symbol>
<symbol overflow="visible" id="glyph1-1">
<path style="stroke:none;" d="M 6.265625 -0.734375 L 5.679688 -0.152344 L 3.367188 -2.445312 L 1.078125 -0.152344 L 0.5 -0.734375 L 2.789062 -3.039062 L 0.5 -5.332031 L 1.078125 -5.914062 L 3.367188 -3.621094 L 5.679688 -5.914062 L 6.265625 -5.332031 L 3.953125 -3.039062 Z M 6.265625 -0.734375 "/>
</symbol>
<symbol overflow="visible" id="glyph1-2">
<path style="stroke:none;" d="M 0.195312 -0.152344 C 0.5 -0.179688 0.703125 -0.230469 0.804688 -0.304688 C 0.960938 -0.417969 1.039062 -0.644531 1.039062 -0.984375 L 1.039062 -4.015625 C 1.039062 -4.304688 1 -4.492188 0.921875 -4.582031 C 0.847656 -4.671875 0.71875 -4.71875 0.546875 -4.71875 C 0.464844 -4.71875 0.402344 -4.710938 0.359375 -4.703125 C 0.320312 -4.695312 0.273438 -4.683594 0.21875 -4.664062 L 0.21875 -4.867188 L 0.640625 -5.007812 C 0.792969 -5.058594 1.039062 -5.152344 1.390625 -5.285156 C 1.738281 -5.417969 1.921875 -5.484375 1.9375 -5.484375 C 1.957031 -5.484375 1.96875 -5.476562 1.976562 -5.453125 C 1.980469 -5.433594 1.980469 -5.398438 1.980469 -5.34375 L 1.980469 -4.554688 C 2.367188 -4.90625 2.703125 -5.148438 2.984375 -5.28125 C 3.265625 -5.417969 3.554688 -5.484375 3.851562 -5.484375 C 4.253906 -5.484375 4.570312 -5.347656 4.8125 -5.074219 C 4.9375 -4.925781 5.039062 -4.726562 5.121094 -4.46875 C 5.410156 -4.761719 5.664062 -4.980469 5.875 -5.121094 C 6.246094 -5.363281 6.625 -5.484375 7.015625 -5.484375 C 7.644531 -5.484375 8.0625 -5.226562 8.273438 -4.71875 C 8.394531 -4.429688 8.453125 -3.96875 8.453125 -3.34375 L 8.453125 -0.914062 C 8.453125 -0.636719 8.515625 -0.449219 8.640625 -0.347656 C 8.761719 -0.25 8.984375 -0.183594 9.304688 -0.152344 L 9.304688 0 L 6.664062 0 L 6.664062 -0.164062 C 7.003906 -0.195312 7.226562 -0.265625 7.332031 -0.367188 C 7.441406 -0.472656 7.492188 -0.6875 7.492188 -1.015625 L 7.492188 -3.539062 C 7.492188 -3.917969 7.453125 -4.195312 7.371094 -4.375 C 7.226562 -4.695312 6.945312 -4.859375 6.523438 -4.859375 C 6.269531 -4.859375 6.015625 -4.773438 5.765625 -4.605469 C 5.621094 -4.507812 5.445312 -4.351562 5.234375 -4.136719 L 5.234375 -1.136719 C 5.234375 -0.820312 5.289062 -0.578125 5.398438 -0.414062 C 5.511719 -0.25 5.746094 -0.164062 6.105469 -0.152344 L 6.105469 0 L 3.414062 0 L 3.414062 -0.152344 C 3.785156 -0.199219 4.023438 -0.289062 4.125 -0.421875 C 4.226562 -0.554688 4.277344 -0.882812 4.277344 -1.398438 L 4.277344 -3.039062 C 4.277344 -3.640625 4.238281 -4.054688 4.160156 -4.28125 C 4.03125 -4.664062 3.757812 -4.859375 3.339844 -4.859375 C 3.101562 -4.859375 2.867188 -4.792969 2.636719 -4.660156 C 2.40625 -4.53125 2.203125 -4.359375 2.027344 -4.148438 L 2.027344 -0.945312 C 2.027344 -0.648438 2.078125 -0.441406 2.183594 -0.328125 C 2.285156 -0.214844 2.511719 -0.15625 2.859375 -0.152344 L 2.859375 0 L 0.195312 0 Z M 0.195312 -0.152344 "/>
</symbol>
<symbol overflow="visible" id="glyph1-3">
<path style="stroke:none;" d="M 0.304688 -2.71875 C 0.304688 -3.496094 0.550781 -4.152344 1.046875 -4.691406 C 1.539062 -5.226562 2.175781 -5.496094 2.953125 -5.496094 C 3.726562 -5.496094 4.367188 -5.242188 4.875 -4.734375 C 5.382812 -4.226562 5.636719 -3.550781 5.636719 -2.707031 C 5.636719 -1.929688 5.390625 -1.253906 4.898438 -0.679688 C 4.40625 -0.105469 3.769531 0.179688 2.988281 0.179688 C 2.238281 0.179688 1.601562 -0.09375 1.085938 -0.644531 C 0.566406 -1.195312 0.304688 -1.886719 0.304688 -2.71875 Z M 2.789062 -5.144531 C 2.480469 -5.144531 2.210938 -5.042969 1.984375 -4.839844 C 1.59375 -4.484375 1.398438 -3.871094 1.398438 -3 C 1.398438 -2.304688 1.558594 -1.65625 1.871094 -1.054688 C 2.1875 -0.453125 2.625 -0.152344 3.179688 -0.152344 C 3.617188 -0.152344 3.957031 -0.351562 4.191406 -0.757812 C 4.429688 -1.160156 4.546875 -1.6875 4.546875 -2.335938 C 4.546875 -3.011719 4.398438 -3.648438 4.09375 -4.25 C 3.792969 -4.847656 3.359375 -5.144531 2.789062 -5.144531 Z M 2.789062 -5.144531 "/>
</symbol>
<symbol overflow="visible" id="glyph1-4">
<path style="stroke:none;" d="M 2.84375 -5.539062 C 3.128906 -5.539062 3.390625 -5.476562 3.625 -5.351562 C 3.78125 -5.269531 3.933594 -5.15625 4.078125 -5.007812 L 4.078125 -6.875 C 4.078125 -7.113281 4.050781 -7.273438 4 -7.367188 C 3.945312 -7.457031 3.820312 -7.5 3.621094 -7.5 C 3.574219 -7.5 3.53125 -7.5 3.5 -7.492188 C 3.464844 -7.488281 3.382812 -7.484375 3.265625 -7.46875 L 3.265625 -7.664062 L 3.742188 -7.789062 C 3.917969 -7.835938 4.09375 -7.882812 4.273438 -7.933594 C 4.449219 -7.984375 4.601562 -8.03125 4.734375 -8.078125 C 4.796875 -8.097656 4.898438 -8.136719 5.046875 -8.191406 L 5.078125 -8.179688 L 5.070312 -7.5625 C 5.066406 -7.339844 5.0625 -7.113281 5.054688 -6.875 C 5.050781 -6.640625 5.050781 -6.40625 5.050781 -6.175781 L 5.039062 -1.390625 C 5.039062 -1.136719 5.070312 -0.957031 5.132812 -0.855469 C 5.195312 -0.753906 5.359375 -0.703125 5.632812 -0.703125 C 5.675781 -0.703125 5.71875 -0.703125 5.757812 -0.707031 C 5.800781 -0.707031 5.84375 -0.710938 5.890625 -0.71875 L 5.890625 -0.527344 C 5.867188 -0.519531 5.582031 -0.421875 5.039062 -0.234375 L 4.117188 0.109375 L 4.078125 0.0585938 L 4.078125 -0.664062 C 3.859375 -0.425781 3.671875 -0.253906 3.507812 -0.152344 C 3.222656 0.0234375 2.894531 0.109375 2.519531 0.109375 C 1.855469 0.109375 1.316406 -0.144531 0.90625 -0.660156 C 0.492188 -1.171875 0.289062 -1.765625 0.289062 -2.445312 C 0.289062 -3.292969 0.535156 -4.019531 1.027344 -4.625 C 1.523438 -5.234375 2.125 -5.539062 2.84375 -5.539062 Z M 3.058594 -0.523438 C 3.363281 -0.523438 3.609375 -0.609375 3.796875 -0.789062 C 3.984375 -0.96875 4.078125 -1.140625 4.078125 -1.300781 L 4.078125 -3.8125 C 4.078125 -4.320312 3.941406 -4.679688 3.671875 -4.890625 C 3.398438 -5.097656 3.132812 -5.203125 2.875 -5.203125 C 2.382812 -5.203125 2 -4.984375 1.726562 -4.550781 C 1.453125 -4.113281 1.320312 -3.578125 1.320312 -2.941406 C 1.320312 -2.3125 1.464844 -1.75 1.753906 -1.257812 C 2.046875 -0.765625 2.480469 -0.523438 3.058594 -0.523438 Z M 3.058594 -0.523438 "/>
</symbol>
<symbol overflow="visible" id="glyph1-5">
<path style="stroke:none;" d="M 6.414062 -2.234375 L 6.414062 -1.414062 L 0.359375 -1.414062 L 0.359375 -2.234375 Z M 6.414062 -4.652344 L 6.414062 -3.832031 L 0.359375 -3.832031 L 0.359375 -4.652344 Z M 6.414062 -4.652344 "/>
</symbol>
<symbol overflow="visible" id="glyph2-0">
<path style="stroke:none;" d=""/>
</symbol>
<symbol overflow="visible" id="glyph2-1">
<path style="stroke:none;" d="M 3.550781 -8.050781 C 3.566406 -8.03125 3.574219 -8.015625 3.578125 -8.007812 C 3.578125 -7.996094 3.578125 -7.976562 3.578125 -7.9375 L 3.578125 -0.882812 C 3.578125 -0.582031 3.660156 -0.390625 3.820312 -0.3125 C 3.980469 -0.230469 4.28125 -0.179688 4.71875 -0.164062 L 4.71875 0 L 1.414062 0 L 1.414062 -0.175781 C 1.886719 -0.199219 2.195312 -0.265625 2.335938 -0.367188 C 2.480469 -0.472656 2.554688 -0.703125 2.554688 -1.054688 L 2.554688 -6.480469 C 2.554688 -6.667969 2.53125 -6.8125 2.484375 -6.90625 C 2.4375 -7.003906 2.335938 -7.054688 2.179688 -7.054688 C 2.078125 -7.054688 1.945312 -7.027344 1.785156 -6.96875 C 1.621094 -6.914062 1.46875 -6.851562 1.328125 -6.789062 L 1.328125 -6.953125 L 3.480469 -8.050781 Z M 3.550781 -8.050781 "/>
</symbol>
</g>
</defs>
<g id="surface17">
<g style="fill:rgb(0%,0%,0%);fill-opacity:1;">
  <use xlink:href="#glyph0-1" x="0.492188" y="8.804688"/>
</g>
<g style="fill:rgb(0%,0%,0%);fill-opacity:1;">
  <use xlink:href="#glyph1-1" x="10.972656" y="8.808594"/>
</g>
<g style="fill:rgb(0%,0%,0%);fill-opacity:1;">
  <use xlink:href="#glyph0-2" x="21.53125" y="8.804688"/>
</g>
<g style="fill:rgb(0%,0%,0%);fill-opacity:1;">
  <use xlink:href="#glyph1-2" x="30.941406" y="8.808594"/>
  <use xlink:href="#glyph1-3" x="40.275391" y="8.808594"/>
  <use xlink:href="#glyph1-4" x="46.275391" y="8.808594"/>
</g>
<g style="fill:rgb(0%,0%,0%);fill-opacity:1;">
  <use xlink:href="#glyph0-3" x="57.085938" y="8.804688"/>
</g>
<g style="fill:rgb(0%,0%,0%);fill-opacity:1;">
  <use xlink:href="#glyph1-5" x="66.9375" y="8.808594"/>
</g>
<g style="fill:rgb(0%,0%,0%);fill-opacity:1;">
  <use xlink:href="#glyph2-1" x="76.691406" y="8.804688"/>
</g>
</g>
</svg>
