,Android,iOS
Mechanisms,"Threads, AsyncTasks, etc",Grand Central Dispatch
Units,`java.lang.Runnable` or `android.os.AsyncTask`,Blocks
Queues,`android.os.Handler`,GCD dispatch queues
Long-running,`android.support.v4.app.JobIntentService`,Background modes & fetch
